{
  "x-generator": "NSwag v11.9.0.0 (NJsonSchema v9.7.1.0 (Newtonsoft.Json v10.0.0.0))",
  "swagger": "2.0",
  "info": {
    "title": "Web API Swagger specification",
    "version": "1.0.0"
  },
  "host": "localhost:5000",
  "basePath": "",
  "schemes": [
    "http"
  ],
  "consumes": [
    "application/json"
  ],
  "produces": [
    "application/json"
  ],
  "paths": {
    "/Home/Index": {
      "post": {
        "tags": [
          "Home"
        ],
        "operationId": "Home_Index",
        "parameters": [],
        "responses": {
          "200": {
            "description": "",
            "schema": {
              "type": "file"
            },
            "x-nullable": true
          }
        }
      }
    },
    "/api/enums/risk_constructions": {
      "get": {
        "tags": [
          "Enums"
        ],
        "operationId": "Enums_GetRiskConstructions",
        "parameters": [],
        "responses": {
          "200": {
            "description": "",
            "schema": {
              "type": "array",
              "items": {
                "$ref": "#/definitions/KeyValuePairOfInt32AndString"
              }
            },
            "x-nullable": true
          }
        }
      }
    },
    "/api/policies": {
      "get": {
        "tags": [
          "Policy"
        ],
        "operationId": "Policy_GetAllPolicies",
        "parameters": [],
        "responses": {
          "200": {
            "description": "",
            "schema": {
              "type": "array",
              "items": {
                "$ref": "#/definitions/PolicyVm"
              }
            },
            "x-nullable": true
          }
        }
      },
      "post": {
        "tags": [
          "Policy"
        ],
        "operationId": "Policy_AddNewPolicy",
        "parameters": [
          {
            "name": "model",
            "in": "body",
            "schema": {
              "$ref": "#/definitions/PolicyVm"
            },
            "x-nullable": true
          }
        ],
        "responses": {
          "200": {
            "description": "",
            "schema": {
              "type": "file"
            },
            "x-nullable": true
          }
        }
      }
    }
  },
  "definitions": {
    "KeyValuePairOfInt32AndString": {
      "type": "object",
      "additionalProperties": false,
      "required": [
        "key"
      ],
      "properties": {
        "key": {
          "type": "integer",
          "format": "int32"
        },
        "value": {
          "type": "string"
        }
      },
      "allOf": [
        {
          "$ref": "#/definitions/ValueType"
        }
      ]
    },
    "ValueType": {
      "type": "object",
      "additionalProperties": false
    },
    "PolicyVm": {
      "type": "object",
      "additionalProperties": false,
      "required": [
        "policyId",
        "policyNumber",
        "effectiveDate",
        "expirationDate",
        "riskConstruction"
      ],
      "properties": {
        "policyId": {
          "type": "integer",
          "format": "int32"
        },
        "policyNumber": {
          "type": "integer",
          "format": "int32"
        },
        "effectiveDate": {
          "type": "string",
          "format": "date-time"
        },
        "expirationDate": {
          "type": "string",
          "format": "date-time"
        },
        "primaryInsuredName": {
          "type": "string"
        },
        "riskConstruction": {
          "type": "integer",
          "format": "byte"
        },
        "riskYearBuilt": {
          "type": "integer",
          "format": "int32"
        },
        "primaryAddress": {
          "$ref": "#/definitions/AddressVm"
        },
        "riskAddress": {
          "$ref": "#/definitions/AddressVm"
        }
      }
    },
    "AddressVm": {
      "type": "object",
      "additionalProperties": false,
      "required": [
        "addressType",
        "policyId"
      ],
      "properties": {
        "addressType": {
          "type": "integer",
          "format": "byte"
        },
        "policyId": {
          "type": "integer",
          "format": "int32"
        },
        "street": {
          "type": "string"
        },
        "city": {
          "type": "string"
        },
        "state": {
          "type": "string"
        },
        "zipCode": {
          "type": "string"
        }
      }
    }
  },
  "parameters": {},
  "responses": {},
  "securityDefinitions": {}
}